{
  "images" : [
    {
      "idiom" : "universal",
      "filename" : "nav-completed.png",
      "scale" : "1x"
    },
    {
      "idiom" : "universal",
      "filename" : "nav-completed@2x.png",
      "scale" : "2x"
    },
    {
      "idiom" : "universal",
      "filename" : "nav-completed@3x.png",
      "scale" : "3x"
    }
  ],
  "info" : {
    "author" : "AVAssetCatalogCreator",
    "version" : 1
  }
}